\select@language {french}
\contentsline {section}{\numberline {0.1}Pr\IeC {\'e}sentation}{2}
\contentsline {section}{\numberline {0.2}T\IeC {\'e}l\IeC {\'e}chargement et installation}{2}
\contentsline {section}{\numberline {0.3}Pr\IeC {\'e}sentation des fonctionnalit\IeC {\'e}s}{2}
\contentsline {section}{\numberline {0.4}Utilisation faites des fonctionnalit\IeC {\'e}s dans la simulation multi-agents}{2}
\contentsline {section}{\numberline {0.5}Points cl\IeC {\'e}s}{2}
