\relax 
\catcode `:\active 
\catcode `;\active 
\catcode `!\active 
\catcode `?\active 
\select@language{french}
\@writefile{toc}{\select@language{french}}
\@writefile{lof}{\select@language{french}}
\@writefile{lot}{\select@language{french}}
\@writefile{toc}{\contentsline {chapter}{\numberline {1}\IeC {\'E}tat sur l'\IeC {\'e}volution du sujet}{2}}
\@writefile{lof}{\addvspace {10\p@ }}
\@writefile{lot}{\addvspace {10\p@ }}
\@writefile{toc}{\contentsline {section}{\numberline {1.1}Entit\IeC {\'e}s \& comportements}{2}}
\@writefile{lof}{\contentsline {figure}{\numberline {1.1}{\ignorespaces Diagramme de classe}}{3}}
\@writefile{toc}{\contentsline {section}{\numberline {1.2}R\IeC {\'e}sultats \IeC {\'e}tudi\IeC {\'e}s}{3}}
\@writefile{toc}{\contentsline {chapter}{\numberline {2}Conception \& impl\IeC {\'e}mentation du projet}{4}}
\@writefile{lof}{\addvspace {10\p@ }}
\@writefile{lot}{\addvspace {10\p@ }}
\@writefile{toc}{\contentsline {section}{\numberline {2.1}Conception et impl\IeC {\'e}mentation du moteur de la simulation}{4}}
\@writefile{toc}{\contentsline {subsection}{\numberline {2.1.1}Entit\IeC {\'e} de simulation : le gestionnaire}{4}}
\@writefile{lof}{\contentsline {figure}{\numberline {2.1}{\ignorespaces Diagramme de la classe Gestionnaire}}{5}}
\@writefile{toc}{\contentsline {subsection}{\numberline {2.1.2}Structure de la simulation : interfa\IeC {\c c}age entre les entit\IeC {\'e}s}{5}}
\@writefile{lof}{\contentsline {figure}{\numberline {2.2}{\ignorespaces Diagramme du patron m\IeC {\'e}diateur}}{6}}
\@writefile{toc}{\contentsline {section}{\numberline {2.2}Visualisation des r\IeC {\'e}sultats}{6}}
\@writefile{toc}{\contentsline {chapter}{\numberline {3}R\IeC {\'e}sultats}{7}}
\@writefile{lof}{\addvspace {10\p@ }}
\@writefile{lot}{\addvspace {10\p@ }}
\@writefile{toc}{\contentsline {section}{\numberline {3.1}\IeC {\'E}tude des ressources}{7}}
\@writefile{toc}{\contentsline {subsection}{\numberline {3.1.1}Profiling}{7}}
\@writefile{toc}{\contentsline {subsection}{\numberline {3.1.2}Valgrind}{8}}
\@writefile{toc}{\contentsline {section}{\numberline {3.2}R\IeC {\'e}sultats de simulation}{9}}
\@writefile{toc}{\contentsline {subsection}{\numberline {3.2.1}Analyse spectrale du r\IeC {\'e}sultat}{9}}
\@writefile{lof}{\contentsline {figure}{\numberline {3.1}{\ignorespaces Analyse spectrale de l'\IeC {\'e}tat final des populations : Feu en haut, Glace en bas}}{9}}
\@writefile{toc}{\contentsline {paragraph}{Simulation n\degre  1}{10}}
\@writefile{lof}{\contentsline {figure}{\numberline {3.2}{\ignorespaces Analyse spectrale de l'\IeC {\'e}tat final des populations : Feu en haut, Glace en bas}}{11}}
\@writefile{toc}{\contentsline {paragraph}{Simulation n\degre  2}{11}}
\@writefile{toc}{\contentsline {subsection}{\numberline {3.2.2}Analyse d\IeC {\'e}mographique du d\IeC {\'e}roulement de la simulation}{12}}
\@writefile{toc}{\contentsline {paragraph}{Simulation n\degre  1\\}{12}}
\@writefile{lof}{\contentsline {figure}{\numberline {3.3}{\ignorespaces Analyse d\IeC {\'e}mographique au cours du temps: Feu \IeC {\`a} gauche, Glace \IeC {\`a} droite}}{12}}
\@writefile{toc}{\contentsline {paragraph}{Simulation n\degre  2\\}{12}}
\@writefile{lof}{\contentsline {figure}{\numberline {3.4}{\ignorespaces Analyse d\IeC {\'e}mographique au cours du temps: Feu \IeC {\`a} gauche, Glace \IeC {\`a} droite}}{13}}
\@writefile{toc}{\contentsline {chapter}{\numberline {4}Conclusion}{14}}
\@writefile{lof}{\addvspace {10\p@ }}
\@writefile{lot}{\addvspace {10\p@ }}
\newlabel{LastPage}{{}{14}}
\xdef\lastpage@lastpage{14}
\gdef\lastpage@lastpageHy{}
