\relax 
\catcode `:\active 
\catcode `;\active 
\catcode `!\active 
\catcode `?\active 
\select@language{french}
\@writefile{toc}{\select@language{french}}
\@writefile{lof}{\select@language{french}}
\@writefile{lot}{\select@language{french}}
\@writefile{toc}{\contentsline {chapter}{\numberline {1}Analyse des besoins}{2}}
\@writefile{lof}{\addvspace {10\p@ }}
\@writefile{lot}{\addvspace {10\p@ }}
\@writefile{toc}{\contentsline {section}{\numberline {1.1}Classes d'agent}{2}}
\@writefile{toc}{\contentsline {subsection}{\numberline {1.1.1}Pok\IeC {\'e}mon\texttrademark }{2}}
\@writefile{toc}{\contentsline {paragraph}{Vie et mort\\}{2}}
\@writefile{lof}{\contentsline {figure}{\numberline {1.1}{\ignorespaces Diagramme de classe}}{3}}
\@writefile{toc}{\contentsline {section}{\numberline {1.2}D\IeC {\'e}placements et champ de vision}{3}}
\@writefile{toc}{\contentsline {section}{\numberline {1.3}Interactions}{3}}
\@writefile{toc}{\contentsline {subsection}{\numberline {1.3.1}Entre agent de la m\IeC {\^e}me esp\IeC {\`e}ce}{3}}
\@writefile{toc}{\contentsline {paragraph}{Gestation\\}{3}}
\@writefile{toc}{\contentsline {subsection}{\numberline {1.3.2}Entre agents oppos\IeC {\'e}s}{3}}
\@writefile{toc}{\contentsline {chapter}{\numberline {2}Etablissement des r\IeC {\`e}gles}{5}}
\@writefile{lof}{\addvspace {10\p@ }}
\@writefile{lot}{\addvspace {10\p@ }}
\@writefile{toc}{\contentsline {section}{\numberline {2.1}R\IeC {\`e}gles de d\IeC {\'e}placement et de vision}{5}}
\@writefile{toc}{\contentsline {paragraph}{R\IeC {\`e}gles de vision\\}{5}}
\@writefile{toc}{\contentsline {paragraph}{R\IeC {\`e}gles de d\IeC {\'e}placement\\}{5}}
\@writefile{toc}{\contentsline {section}{\numberline {2.2}R\IeC {\`e}gles d'interactions}{6}}
\@writefile{toc}{\contentsline {paragraph}{Lors d'un conflit\\}{6}}
\@writefile{toc}{\contentsline {paragraph}{Lors d'une rencontre avec un individu amical\\}{6}}
\@writefile{toc}{\contentsline {section}{\numberline {2.3}R\IeC {\`e}gles suppl\IeC {\'e}mentaires}{7}}
\@writefile{toc}{\contentsline {paragraph}{Influence sur le climat\\}{7}}
\@writefile{toc}{\contentsline {paragraph}{D\IeC {\'e}tails sur le "nid"\\}{7}}
\@writefile{toc}{\contentsline {chapter}{\numberline {3}Planification du projet}{8}}
\@writefile{lof}{\addvspace {10\p@ }}
\@writefile{lot}{\addvspace {10\p@ }}
\@writefile{lof}{\contentsline {figure}{\numberline {3.1}{\ignorespaces Planning pr\IeC {\'e}visionnel g\IeC {\'e}n\IeC {\'e}r\IeC {\'e} le 27 novembre}}{8}}
\newlabel{LastPage}{{}{8}}
\xdef\lastpage@lastpage{8}
\gdef\lastpage@lastpageHy{}
